Exam_3_Porter
…
There are several C-substrates that demonstrate a unique profile exemplified by that of Glycogen, above. At higher concentrations, there is a higher intitial metabolic activity at 24h, but eventually a lower overall metabolic activity at 144h. Whereas at lower concentrations, the intial metabolism is lower, but continues on to end up with a higher overall level of metabolism. Indeed, there are many metabolites which display a greater level of metabolism at lower concentrations than at higher ones, particularly at 144h.

Soil vs Water Microbial Metabolism

As was seen above, there is a significant difference between samples from water sources and samples from soil samples in their ability to metabolize C-substrates.

## # A tibble: 32 x 4
##    Substrate                     Soil  Water Difference
##    <fct>                        <dbl>  <dbl>      <dbl>
##  1 L-Asparganine                1.51  0.023       1.48 
##  2 L-Serine                     1.39  0.118       1.28 
##  3 L-Arginine                   1.15  0.0085      1.14 
##  4 D-Mannitol                   1.19  0.270       0.916
##  5 D-Galacturonic Acid          1.02  0.13        0.885
##  6 N-Acetyl-D-Glucosamine       1.08  0.262       0.813
##  7 Pyruvic Acid Methyl Ester    0.889 0.089       0.800
##  8 4-Hydroxy Benzoic Acid       0.844 0.0905      0.754
##  9 D-Cellobiose                 0.878 0.139       0.738
## 10 D-Galactonic Acid -Lactone 0.725 0.002       0.723
## # ... with 22 more rows
…
